0.73717
0.72478
0.73825
0.72013
0.73333
0.72365
0.73933
0.72232
0.73649
0.72135
0.73378
0.72312
0.73449
0.7211
0.7342
0.72224
0.73615
0.72222
0.73327
0.71984
0.73378
0.7228
0.7354
0.72039
0.7369
0.72025
0.7362
0.72054
0.73885
0.71694
0.73587
0.72285
0.73547
0.71891
0.73339
0.71872
0.73366
0.719
0.73549
0.71594
0.73321
0.71624
0.73093
0.71963
0.73205
0.7153
0.73441
0.71855
0.73326
0.72035
0.73326
0.7167
0.73276
0.71626
0.72909
0.71666
0.72948
0.71411
0.72968
0.71315
0.72863
0.71548
0.72838
0.71392
0.72661
0.70746
0.72763
0.70865
0.72407
0.71151
0.72209
0.70533
0.7145
0.70038
0.71383
0.69532
0.71053
0.6892
0.70037
0.67835
0.68875
0.66922
0.67431
0.65612
0.65745
0.63841
0.64646
0.623
0.62756
0.60582
0.6107
0.58632
0.59145
0.56865
0.57282
0.54932
0.55381
0.5293
0.53485
0.51092
0.51987
0.49602
0.5048
0.48387
0.49038
0.47245
0.47955
0.46207
0.46994
0.44943
0.45984
0.44082
0.44846
0.4298
0.43988
0.42027
0.42752
0.41085
0.42024
0.40272
0.41258
0.39534
0.40289
0.38697
0.39703
0.38284
0.38951
0.37233
0.38237
0.36643
0.3749
0.36007
0.36881
0.3655
0.36391
0.34875
0.35678
0.34219
0.35147
0.33436
0.3451
0.3295
0.33787
0.32421
0.33375
0.32171
0.32905
0.31561
0.3247
0.31252
0.32136
0.30759
0.31868
0.30494
0.31557
0.30152
0.31103
0.29953
0.30816
0.29706
0.30586
0.29463
0.30333
0.29151
0.30042
0.28941
0.29883
0.28843
0.29675
0.28436
0.29394
0.28305
0.29088
0.28079
0.28941
0.27839
0.28551
0.27617
0.28638
0.2764
0.28685
0.2769
0.28713
0.27789
0.2881
0.27919
0.28868
0.28013
0.29101
0.28139
0.29166
0.28427
0.29342
0.28426
0.2952
0.28856
0.29839
0.28771
0.29874
0.29192
0.29944
0.29186
0.30231
0.29104
0.30173
0.29173
0.30282
0.29476
0.30302
0.29468
0.30632
0.29695
0.30806
0.30154
0.31118
0.30235
0.31231
0.3052
0.31709
0.30829
0.32143
0.31195
0.32503
0.31763
0.32943
0.32186
0.33467
0.32726
0.33903
0.33117
0.34452
0.33726
0.34904
0.34194
0.35481
0.34719
0.36149
0.35403
0.36666
0.36103
0.37389
0.36686
0.38228
0.37375
0.38862
0.38231
0.39878
0.39052
0.40585
0.39806
0.41302
0.40387
0.41868
0.41078
0.42519
0.41802
0.43169
0.42247
0.43689
0.42681
0.44013
0.43234
0.44224
0.43402
0.44621
0.43514
0.44643
0.43535
0.44725
0.4367
0.44757
0.4383
0.44811
0.43997
0.45196
0.44211
0.45401
0.44597
0.45762
0.44934
0.46267
0.45565
0.4677
0.45869
0.47226
0.46525
0.47359
0.47138
0.48203
0.47738
0.48731
0.48143
0.49554
0.48663
0.50071
0.49494
0.5052
0.50135
0.5126
0.50794
0.51795
0.51274
0.52357
0.51746
0.53207
0.52395
0.53648
0.52983
0.54285
0.53568
0.54723
0.5421
0.55361
0.54782
0.55814
0.55403
0.56732
0.55872
0.5706
0.56563
0.57879
0.5734
0.58222
0.57865
0.59049
0.5859
0.59607
0.58929
0.60195
0.59579
0.6096
0.60113
0.61135
0.6058
0.61956
0.61342
0.62565
0.61881
0.63163
0.62445
0.63811
0.63143
0.64381
0.63517
0.64827
0.6413
0.65563
0.64945
0.66058
0.65394
0.66509
0.65985
0.673
0.66458
0.67658
0.6677
0.68187
0.67392
0.68547
0.67981
0.68997
0.68199
0.69169
0.6855
0.69545
0.68922
0.70178
0.69243
0.70435
0.69666
0.70484
0.69775
0.70698
0.70032
0.70912
0.70359
0.71055
0.70409
0.71393
0.7046
0.71286
0.7059
0.71691
0.70781
0.71766
0.70963
0.71679
0.71188
0.71925
0.71489
0.7222
0.71217
0.72247
0.71186
0.72355
0.71459
0.72372
0.71458
0.72427
0.71724
0.72428
0.71845
0.72646
0.71494
0.72884
0.71713
0.72809
0.7191
0.72746
0.71918
0.7283
0.71874
0.72694
0.71839
0.7308
0.71903
0.72941
0.72009
0.73025
0.72301
0.73158
0.72269
0.72903
0.7231
0.73132
0.72401
0.73105
0.72635
0.73235
0.72611
0.7346
0.72628
0.73519
0.72791
0.73676
0.72842
0.73884
0.72942
0.74089
0.72906
0.73808
0.7316
0.73758
0.7353
0.74096
0.73508
0.74055
0.73451
0.74283
0.73646
0.74573
0.7393
0.74553
0.74168
0.7474
0.74379
0.75084
0.74174
0.75119
0.74494
0.75206
0.74726
0.75452
0.74846
0.75589
0.74989
0.75558
0.75135
0.75847
0.75105
0.7595
0.7541
0.76054
0.75479
0.75998
0.75728
0.76174
0.75767
0.76167
0.75981
0.7641
0.76164
0.76552
0.76089
0.76684
0.76126
0.76829
0.76308
0.76946
0.76549
0.76722
0.76678
0.76877
0.76593
0.76994
0.7688
0.77108
0.76749
0.77239
0.76671
0.77145
0.76864
0.77166
0.76723
0.77292
0.76896
0.77433
0.7682
0.7749
0.77113
0.7735
0.77025
0.77514
0.77177
0.77228
0.77279
0.77508
0.77289
0.77678
0.77209
0.77819
0.77605
0.78083
0.77543
0.779
0.77627
0.77902
0.7811
0.7818
0.77837
0.78211
0.78025
0.78247
0.78035
0.78362
0.78167
0.78552
0.78331
0.78639
0.78439
0.7879
0.78561
0.78767
0.78581
0.78849
0.78661
0.78726
0.78628
0.79188
0.78733
0.79063
0.78991
0.79338
0.79157
0.7936
0.79306
0.79579
0.79549
0.79694
0.79566
0.79887
0.79919
0.80166
0.79959
0.80234
0.80118
0.80173
0.80093
0.80371
0.80194
0.80699
0.80595
0.8073
0.80618
0.80858
0.80834
0.80964
0.80949
0.81227
0.81027
0.81378
0.8123
0.81434
0.81395
0.81665
0.81511
0.8173
0.8167
0.81914
0.81811
0.82038
0.81854
0.82095
0.82156
0.82327
0.8217
0.82455
0.82219
0.82438
0.82337
0.82588
0.82587
0.82833
0.82772
0.82797
0.82935
0.83098
0.82972
0.83124
0.83048
0.83207
0.83176
0.83376
0.83354
0.8348
0.83298
0.83675
0.83622
0.83677
0.83768
0.83836
0.83923
0.83953
0.84055
0.84112
0.84034
0.84111
0.84136
0.84348
0.84226
0.84474
0.84544
0.8463
0.84568
0.84714
0.84673
0.84971
0.84907
0.85066
0.85156
0.85347
0.85288
0.85351
0.8547
0.85546
0.85558
0.85668
0.8576
0.86094
0.85942
0.86247
0.86179
0.86253
0.86306
0.86597
0.8652
0.86709
0.86614
0.86795
0.86847
0.87062
0.86945
0.8719
0.8718
0.87311
0.87227
0.87405
0.87489
0.87515
0.87543
0.87726
0.87834
0.87818
0.87793
0.87996
0.88031
0.88025
0.88074
0.88283
0.88254
0.88343
0.88328
0.88438
0.88495
0.88594
0.88532
0.88651
0.88636
0.8879
0.88766
0.88795
0.88804
0.88996
0.88896
0.89072
0.89048
0.89149
0.89169
0.89296
0.89223
0.89372
0.89322
0.8941
0.89506
0.89597
0.89611
0.89606
0.89737
0.89763
0.89759
0.89901
0.8985
0.90179
0.90066
0.90079
0.90199
0.90236
0.90322
0.90308
0.90329
0.9042
0.90432
0.90576
0.90741
0.90702
0.90746
0.90836
0.90867
0.90877
0.90932
0.91023
0.91054
0.91259
0.91132
0.91307
0.91198
0.91383
0.9136
0.91337
0.91537
0.91524
0.91498
0.91691
0.91643
0.91759
0.91722
0.91809
0.91826
0.91834
0.91806
0.92055
0.9199
0.91995
0.91989
0.92083
0.92248
0.9215
0.92191
0.92253
0.92305
0.92427
0.92431
0.92402
0.92296
0.92552
0.92448
0.92585
0.92599
0.92632
0.92562
0.92621
0.92664
0.92745
0.92779
0.92831
0.92727
0.92754
0.92834
0.92835
0.92865
0.92902
0.92905
0.92939
0.92889
0.92903
0.92943
0.93081
0.92923
0.92951
0.93041
0.93094
0.93076
0.93193
0.9317
0.93224
0.93238
0.93378
0.93332
0.93518
0.93357
0.93604
0.93509
0.93648
0.93553
0.93728
0.93714
0.93837
0.93968
0.94171
0.94281
0.94433
0.94553
0.94808
0.94899
0.9507
0.95114
0.9544
0.95442
0.95666
0.95872
0.95947
0.96118
0.9632
0.96545
0.96617
0.96887
0.96975
0.97152
0.97396
0.97368
0.97488
0.97466
0.9745
0.97525
0.97555
0.9749
0.97574
0.97525
0.97534
0.97417
0.97537
0.97552
0.97636
0.97506
0.97562
0.97518
0.97644
0.97611
0.9764
0.97688
0.97803
0.97915
0.97647
0.97887
0.97866
0.9796
0.98003
0.97936
0.98098
0.98152
0.98072
0.98116
0.98216
0.98253
0.98383
0.98329
0.9841
0.98505
0.98554
0.98566
0.9858
0.98649
0.98675
0.98672
0.98736
0.98748
0.98667
0.98688
0.98729
0.9882
0.98789
0.98827
0.9884
0.98809
0.98844
0.98841
0.98905
0.98936
0.98974
0.9892
0.98948
0.98891
0.98898
0.98965
0.98888
0.98958
0.99094
0.99049
0.99055
0.98951
0.99048
0.99022
0.99043
0.99019
0.99081
0.99009
0.99053
0.99001
0.99087
0.99025
0.99038
0.99082
0.99014
0.99004
0.99017
0.98998
0.99012
0.99081
0.99024
0.9911
0.99095
0.99238
0.99234
0.99199
0.99267
0.9916
0.9923
0.99138
0.99169
0.99193
0.99226
0.99175
0.99308
0.99271
0.99375
0.99253
0.9936
0.99369
0.99464
0.99469
0.99594
0.99512
0.99613
0.99616
0.99541
0.9962
0.9968
0.99862
0.99831
0.99769
0.99779
0.99797
0.99709
0.99658
0.99599
0.99669
0.99673
0.99681
0.99619
0.99691
0.99723
0.99685
0.99614
0.99653
0.99662
0.99743
0.99738
0.99686
0.99732
0.99709
0.99703
0.99684
0.99721
0.99753
0.99832
0.99808
0.99801
0.99774
0.99855
0.99913
0.99926
0.99888
0.99869
0.99845
0.99874
0.99799
0.99805
0.99771
0.99743
0.99687
0.99718
0.99655
0.99742
0.99716
0.9976
0.99784
0.99696
0.99634
0.9965
0.99681
0.99673
0.99667
0.99626
0.99501
0.99487
0.995
0.99525
0.99558
0.99525
0.99587
0.99548
0.9964
0.99632
0.99731
0.99672
0.99726
0.99715
0.99696
0.99771
0.99754
0.998
0.99753
0.99813
0.99808
0.99864
0.99906
0.99909
1.00012
1.00079
1.00058
1.00143
1.00125
1.00169
1.00085
1.00165
1.00069
1.00082
1.00088
1.00147
1.00107
1.00169
1.00108
1.00179
1.00093
1.00184
1.00174
1.00169
1.00182
1.00267
1.00214
1.00288
1.00297
1.00405
1.00408
1.00337
1.00331
1.00331
1.0029
1.00204
1.00206
1.00227
1.00184
1.00172
1.00148
1.00155
1.00185
1.00221
1.0021
1.00246
1.00379
1.00317
1.00272
1.0023
1.00155
1.00141
1.0014
1.00199
1.00199
1.00206
1.00267
1.00256
1.00288
1.00385
1.00357
1.00469
1.00356
1.00385
1.00446
1.00443
1.00573
1.00663
1.00676
1.00682
1.00637
1.0066
1.00677
1.00612
1.00633
1.00608
1.00601
1.00526
1.0061
1.00617
1.00653
1.00724
1.00638
1.00626
1.00688
1.00833
1.00959
1.00905
1.00905
1.00933
1.00711
1.00698
1.00691
1.00748
1.00715
1.00642
1.00634
1.00661
1.00675
1.0065
1.00558
1.0045
1.00483
1.00312
1.00355
1.00111
1.00071
0.99924
0.99828
0.9969
0.99699
0.9948
0.99244
0.99048
0.99101
0.98893
0.98782
0.9864
0.98606
0.98386
0.98474
0.9844
0.98375
0.98235
0.98123
0.97945
0.98074
0.97989
0.97999
0.97856
0.97972
0.97968
0.97919
0.97981
0.98138
0.97839
0.97793
0.9774
0.97772
0.97696
0.97635
0.97417
0.97544
0.97456
0.97446
0.97358
0.97199
0.97049
0.97147
0.96989
0.96782
0.96663
0.96611
0.96422
0.96571
0.96447
0.96471
0.96456
0.96433
0.96328
0.96437
0.96488
0.96502
0.96142
0.96394
0.96144
0.96429
0.96244
0.96271
0.96309
0.96458
0.96214
0.96307
0.96172
0.96325
0.96125
0.96141
0.96234
0.96082
0.96117
0.95801
0.95869
0.95964
0.95584
0.95819
0.95668
0.95791
0.95565
0.95724
0.95856
0.95706
0.95708
0.96056
0.95963
0.95774
0.9568
0.95932
0.95747
0.95569
0.95995
0.96001
0.95783
0.9619
0.96118
0.95883
0.95796
0.95949
0.95716
0.95815
0.95883
0.95923
0.95736
0.96065
0.95809
0.95873
0.95928
0.96219
0.95597
0.96064
0.95617
0.95971
0.95883
0.95916
0.95818
0.95944
0.96119
0.96208
0.96181
0.96168
0.96315
0.96137
0.96185
0.95923
0.9627
0.9621
0.96155
0.96223
0.96035
0.96018
0.96211
0.96106
0.96202
0.95776
0.96166
0.96138
0.96141
0.96006
0.96004
0.96226
0.96253
0.95978
0.96075
0.95963
0.96213
0.96018
0.96132
0.95965
0.95881
0.95934
0.95837
0.95862
0.95911
0.95888
0.95927
0.95884
0.9595
0.95839
0.96053
0.96041
0.96038
0.96181
0.9582
0.95975
0.96148
0.96031
0.96093
0.95926
0.95977
0.96246
0.96078
0.95949
0.96096
0.95989
0.9608
0.96108
0.96082
0.96149
0.96341
0.96293
0.96179
0.96074
0.96215
0.96199
0.96242
0.9598
0.96134
0.96031
0.96166
0.96132
0.9637
0.96131
0.96251
0.9606
0.96091
0.96166
0.96194
0.9623
0.96228
0.96251
0.96249
0.96068
0.96376
0.96318
0.96163
0.96463
0.96396
0.96293
0.96513
0.96401
0.96487
0.96502
0.96704
0.96714
0.96792
0.96657
0.96533
0.96416
0.96531
0.96498
0.96525
0.96516
0.96355
0.96431
0.96518
0.96296
0.96595
0.96385
0.96625
0.96543
0.96563
0.96719
0.96553
0.96406
0.96512
0.96601
0.96734
0.9642
0.96711
0.96531
0.96671
0.96572
0.96715
0.96679
0.96676
0.96404
0.96606
0.96529
0.96491
0.96318
0.96368
0.96532
0.96597
0.96483
0.96447
0.9653
0.96672
0.9676
0.96804
0.96544
0.96734
0.96633
0.96672
0.96453
0.96588
0.96655
0.96669
0.96635
0.96831
0.96652
0.96567
0.96516
0.96608
0.96626
0.96677
0.9667
0.9682
0.9664
0.96724
0.96638
0.96809
0.96507
0.96546
0.96733
0.96659
0.96661
0.96665
0.96672
0.96721
0.96512
0.96888
0.96773
0.96749
0.9677
0.96773
0.96785
0.9659
0.96636
0.96884
0.96902
0.96953
0.96718
0.96906
0.96747
0.9689
0.96588
0.96616
0.96861
0.96896
0.9665
0.96709
0.96707
0.96731
0.96642
0.96726
0.96752
0.96788
0.96745
0.96795
0.96695
0.96885
0.96796
0.96845
0.96874
0.96824
0.96907
0.96879
0.96801
0.96897
0.96977
0.9704
0.96971
0.96919
0.96954
0.96887
0.96758
0.97196
0.96753
0.9707
0.9682
0.96852
0.97092
0.9705
0.9709
0.97077
0.9697
0.97069
0.96899
0.97082
0.97128
0.97172
0.96922
0.97003
0.96959
0.96961
0.96881
0.97012
0.97056
0.97125
0.97072
0.97264
0.96973
0.96787
0.96893
0.96928
0.9694
0.96813
0.9679
0.96973
0.96926
0.96814
0.96801
0.96688
0.96838
0.96828
0.97097
0.9701
0.97037
0.96899
0.96891
0.97008
0.97246
0.97332
0.97318
0.97065
0.97142
0.9723
0.97249
0.97084
0.97108
0.97035
0.97084
0.97175
0.97152
0.97171
0.9722
0.97138
0.97138
0.97237
0.9716
0.97043
0.97109
0.97081
0.97317
0.97241
0.97213
0.97232
0.97213
0.97154
0.97082
0.97332
0.97272
0.97293
0.9723
0.97362
0.97308
0.97169
0.9729
0.97217
0.97287
0.97385
0.9726
0.97287
0.97369
0.97163
0.97284
0.97251
0.97439
0.97325
0.97338
0.97235
0.9737
0.97302
0.97526
0.97364
0.97507
0.97481
0.97334
0.97455
0.97456
0.97415
0.97541
0.97499
0.97441
0.97498
0.97513
0.97352
0.97587
0.9742
0.97546
0.97408
0.9745
0.97362
0.97392
0.97495
0.97446
0.97324
0.97419
0.9732
0.97527
0.97391
0.97434
0.97401
0.97557
0.97461
0.97456
0.97377
0.97424
0.97399
0.9756
0.97489
0.97545
0.97595
0.97562
0.97507
0.9744
0.97502
0.97544
0.97364
0.97559
0.97673
0.97625
0.97525
0.97576
0.97571
0.97517
0.97488
0.97636
0.97578
0.97533
0.97472
0.9755
0.97532
0.97605
0.97604
0.97629
0.97502
0.97566
0.97526
0.97675
0.9765
0.97717
0.97606
0.97571
0.9759
0.97546
0.97554
0.97612
0.97571
0.97588
0.97589
0.97649
0.97515
0.97428
0.97539
0.97578
0.97536
0.97556
0.97463
0.97571
0.97631
0.97774
0.97579
0.97702
0.97588
0.97715
0.97456
0.97777
0.9759
0.97716
0.97611
0.9759
0.97624
0.97626
0.97633
0.97602
0.97597
0.97783
0.97679
0.97803
0.97632
0.9766
0.97702
0.9769
0.97613
0.97676
0.97745
0.97628
0.97734
0.97641
0.97617
0.97602
0.97462
0.97611
0.9759
0.97666
0.97643
0.97706
0.97628
0.97619
0.97738
0.97656
0.97669
0.97788
0.97788
0.97882
0.97722
0.9773
0.97627
0.97646
0.97676
0.97643
0.97769
0.97736
0.97779
0.97761
0.97621
0.97781
0.97736
0.97827
0.97582
0.97754
0.97759
0.97687
0.97748
0.97663
0.9763
0.97679
0.97701
0.9769
0.97715
0.97618
0.97743
0.97689
0.97698
0.97626
0.97678
0.97756
0.97775
0.97751
0.9774
0.97861
0.97715
0.9786
0.97918
0.97899
0.97799
0.97723
0.97809
0.97866
0.97732
0.9773
0.97771
0.97818
0.97755
0.97746
0.97876
0.97787
0.97842
0.97848
0.97917
0.97875
0.97827
0.97877
0.97826
0.97871
0.97926
0.97853
0.97926
0.97935
0.97906
0.97879
0.9796
0.97919
0.97964
0.97829
0.9792
0.97826
0.97817
0.97904
0.97942
0.9781
0.97832
0.978
0.9776
0.97837
0.97824
0.97843
0.97822
0.97892
0.97884
0.97865
0.97908
0.97884
0.97981
0.97785
0.97817
0.97956
0.97822
0.97841
0.97854
0.9788
0.97993
0.97847
0.97967
0.97904
0.98006
0.9793
0.97935
0.97933
0.97964
0.97873
0.97935
0.97845
0.98067
0.97918
0.97906
0.97831
0.97872
0.97834
0.97891
0.97896
0.97984
0.97956
0.97836
0.9795
0.97926
0.9791
0.9791
0.9798
0.97927
0.97889
0.97965
0.979
0.9794
0.97927
0.97946
0.97982
0.98032
0.97956
0.97846
0.97927
0.97905
0.97869
0.97943
0.97878
0.97961
0.97846
0.97988
0.97922
0.97965
0.98078
0.9797
0.98061
0.98041
0.98005
0.97922
0.97908
0.97933
0.97954
0.97969
0.97894
0.97942
0.97981
0.98088
0.98013
0.98057
0.98061
0.98125
0.98087
0.98043
0.98117
0.98094
0.98156
0.98183
0.98087
0.97973
0.98024
0.98016
0.98109
0.98098
0.98085
0.98099
0.98142
0.98058
0.9806
0.97964
0.98032
0.98066
0.98068
0.98113
0.98056
0.98164
0.98116
0.98145
0.98204
0.98101
0.98231
0.98111
0.98109
0.9814
0.98153
0.98122
0.98035
0.97995
0.98132
0.98188
0.98123
0.981
0.98138
0.98118
0.98127
0.98133
0.98107
0.98207
0.98083
0.98116
0.98183
0.98165
0.9818
0.98165
0.98199
0.98169
0.98266
0.98224
0.98259
0.982
0.98095
0.98102
0.98161
0.98196
0.98179
0.98185
0.98176
0.98056
0.98205
0.98127
0.98162
0.9819
0.98218
0.98185
0.98246
0.98194
0.98201
0.98234
0.98178
0.98213
0.98204
0.98225
0.98225
0.98166
0.98191
0.98203
0.98182
0.98146
0.98119
0.98118
0.98245
0.98162
0.98261
0.98166
0.9822
0.98292
0.98293
0.98275
0.98239
0.98334
0.98327
0.9837
0.98335
0.98389
0.98453
0.9846
0.98401
0.98237
0.98252
0.98226
0.98229
0.98232
0.98293
0.98342
0.98384
0.98336
0.984
0.98394
0.98282
0.98426
0.98362
0.98368
0.98406
0.98371
0.98341
0.98303
0.98342
0.98291
0.98384
0.98276
0.98248
0.98329
0.98315
0.98429
0.98415
0.98365
0.98305
0.98314
0.98263
0.98352
0.98348
0.98323
0.98357
0.98368
0.98322
0.98353
0.98406
0.98404
0.9845
0.98476
0.98464
0.98412
0.98393
0.98451
0.98414
0.98413
0.98392
0.98387
0.98401
0.98413
0.98369
0.98354
0.98406
0.9837
0.98394
0.984
0.98402
0.98419
0.98496
0.98492
0.98505
0.98654
0.98633
0.98532
0.98571
0.9857
0.98564
0.98537
0.98413
0.98387
0.98226
0.98284
0.98238
0.98292
0.98289
0.98208
0.98248
0.98225
0.98224
0.98149
0.98138
0.98107
0.98134
0.98234
0.98321
0.98397
0.98374
0.98383
0.9844
0.98359
0.98404
0.98429
0.98437
0.98356
0.98274
0.98269
0.98322
0.98365
0.98367
0.98245
0.98321
0.98305
0.98286
0.98299
0.98248
0.98182
0.98183
0.98211
0.98224
0.98113
0.98118
0.98164
0.98168
0.98137
0.98224
0.98259
0.98222
0.98207
0.9832
0.98222
0.98328
0.98404
0.98408
0.98352
0.98342
0.98317
0.98166
0.98135
0.98213
0.98137
0.98148
0.9814
0.98156
0.98171
0.98156
0.982
0.98108
0.98179
0.98201
0.9821
0.98119
0.98246
0.98235
0.98157
0.98179
0.98177
0.98238
0.98342
0.98241
0.98362
0.98388
0.98421
0.98427
0.98415
0.98392
0.98355
0.98374
0.98413
0.98461
0.98421
0.9848
0.98381
0.98346
0.98413
0.98397
0.98267
0.98323
0.98309
0.98272
0.98283
0.98289
0.98266
0.98355
0.98329
0.98329
0.98352
0.98418
0.9847
0.98358
0.98416
0.98435
0.98424
0.98424
0.98478
0.98421
0.9842
0.98324
0.98334
0.98317
0.98224
0.98317
0.98391
0.98494
0.98453
0.98477
0.9843
0.9843
0.98422
0.98421
0.98408
0.98412
0.98407
0.98483
0.98378
0.98365
0.98389
0.98365
0.98402
0.98384
0.9839
0.98558
0.98459
0.98546
0.98596
0.98582
0.98628
0.98544
0.98517
0.98569
0.98604
0.9857
0.98564
0.98576
0.98616
0.98582
0.98641
0.98586
0.98589
0.98586
0.98554
0.98555
0.98618
0.98593
0.98544
0.98671
0.98585
0.986
0.98576
0.98613
0.98661
0.98677
0.98625
0.98617
0.98605
0.98652
0.98579
0.98616
0.98535
0.98631
0.98586
0.98628
0.98646
0.9867
0.98592
0.98586
0.98582
0.985
0.98509
0.98543
0.98555
0.98556
0.98566
0.98609
0.98575
0.9854
0.98588
0.98548
0.98501
0.98443
0.98453
0.98419
0.98488
0.98435
0.98477
0.98508
0.9849
0.9856
0.98558
0.98667
0.98655
0.98576
0.98596
0.98545
0.9857
0.98512
0.98487
0.98465
0.98413
0.98366
0.98354
0.98377
0.98487
0.98448
0.98543
0.98583
0.98593
0.98661
0.98643
0.98621
0.98639
0.98664
0.98621
0.98549
0.98571
0.98545
0.9858
0.98602
0.98655
0.98601
0.98592
0.98628
0.98649
0.98682
0.98739
0.98673
0.98692
0.98593
0.9865
0.98611
0.98627
0.98575
0.98589
0.9858
0.98648
0.9862
0.98722
0.98692
0.9873
0.98756
0.98741
0.98696
0.98736
0.98717
0.98761
0.9876
0.98777
0.98792
0.98807
0.98785
0.98727
0.98784
0.98741
0.98749
0.98702
0.98662
0.9867
0.98655
0.98726
0.98697
0.98773
0.98754
0.98789
0.98735
0.98795
0.98677
0.98763
0.98767
0.98834
0.98855
0.98858
0.98855
0.98877
0.98908
0.98841
0.98866
0.98895
0.989
0.98882
0.98895
0.98906
0.98909
0.98877
0.98882
0.98869
0.98792
0.98808
0.98896
0.9893
0.98825
0.98856
0.98804
0.98879
0.98764
0.98739
0.98806
0.98796
0.98812
0.98828
0.98758
0.98765
0.98762
0.98856
0.98788
0.98802
0.98772
0.98737
0.9868
0.9874
0.98592
0.98618
0.98587
0.98609
0.98637
0.98732
0.98756
0.98748
0.98693
0.98759
0.98753
0.98694
0.98842
0.98729
0.98754
0.98735
0.98659
0.98648
0.98683
0.98579
0.98552
0.98602
0.98591
0.98719
0.98786
0.98757
0.98762
0.98848
0.9883
0.98873
0.98784
0.98825
0.98873
0.98865
0.98871
0.98857
0.98866
0.98804
0.98726
0.98732
0.98756
0.98695
0.98718
0.98729
0.98696
0.98738
0.98809
0.98794
0.98857
0.989
0.9887
0.98906
0.98905
0.98901
0.98959
0.98914
0.98976
0.98987
0.98951
0.98996
0.98932
0.99021
0.98934
0.98921
0.98911
0.98875
0.98879
0.98916
0.98925
0.98924
0.9892
0.9888
0.988
0.98868
0.98872
0.98866
0.98878
0.98872
0.98871
0.98862
0.98837
0.98788
0.98812
0.9893
0.98865
0.98865
0.98833
0.98771
0.98808
0.98785
0.98746
0.98793
0.98733
0.98766
0.9878
0.9876
0.98738
0.98746
0.98739
0.98757
0.98809
0.98857
0.98871
0.98877
0.98849
0.98714
0.98722
0.98812
0.98741
0.98854
0.98825
0.98783
0.9877
0.98768
0.98777
0.98782
0.98728
0.98699
0.98656
0.98657
0.987
0.98797
0.98749
0.98805
0.98881
0.98866
0.988
0.98917
0.98933
0.9891
0.98852
0.98892
0.9884
0.98841
0.98826
0.98822
0.98811
0.98856
0.98891
0.98914
0.98885
0.98848
0.98888
0.98958
0.98937
0.98999
0.98949
0.98933
0.98883
0.98877
0.98837
0.98874
0.9885
0.98905
0.98873
0.98929
0.98887
0.98904
0.98836
0.98828
0.9883
0.98813
0.98734
0.98706
0.98708
0.98721
0.98651
0.98746
0.98753
0.98781
0.98826
0.98778
0.98815
0.98803
0.98856
0.98831
0.9885
0.98881
0.98941
0.98904
0.98864
0.98908
0.98884
0.98931
0.98889
0.98956
0.98948
0.98906
0.9894
0.9894
0.98933
0.98925
0.98906
0.98873
0.98845
0.98802
0.98817
0.98768
0.98805
0.98762
0.9879
0.98826
0.98906
0.9888
0.98861
0.98815
0.98781
0.98784
0.98801
0.98831
0.9877
0.98872
0.98857
0.98931
0.98894
0.98837
0.98836
0.98819
0.98772
0.98799
0.98779
0.98769
0.9876
0.98725
0.98773
0.98733
0.98733
0.98824
0.98812
0.98844
0.98783
0.98769
0.98757
0.98748
0.98756
0.98761
0.98861
0.98804
0.9881
0.98843
0.98819
0.98805
0.988
0.98866
0.98914
0.98896
0.98848
0.98825
0.9888
0.98783
0.98875
0.98984
0.98953
0.98963
0.98962
0.98962
0.98914
0.98918
0.98907
0.98897
0.98871
0.98897
0.98889
0.98886
0.98785
0.98749
0.98792
0.98764
0.98806
0.98735
0.98733
0.98727
0.98677
0.98634
0.98626
0.98623
0.9864
0.98632
0.98634
0.98679
0.98695
0.9869
0.98725
0.98676
0.98658
0.98691
0.98799
0.98707
0.98758
0.98794
0.98805
0.98712
0.98736
0.98735
0.98844
0.98833
0.98814
0.98858
0.98834
0.98917
0.98976
0.98955
0.98927
0.98896
0.98841
0.98781
0.98743
0.98716
0.98738
0.98758
0.9878
0.98795
0.98778
0.9883
0.98776
0.98764
0.98836
0.98788
0.9879
0.98831
0.98839
0.98852
0.98885
0.98948
0.98912
0.9898
0.98988
0.98974
0.9897
0.98927
0.9887
0.98887
0.98891
0.98893
0.9893
0.98926
0.98985
0.98979
0.99062
0.99106
0.99126
0.99092
0.99082
0.99061
0.99105
0.99067
0.99079
0.99094
0.99061
0.99072
0.99127
0.99118
0.99134
0.9919
0.99145
0.99149
0.9908
0.99114
0.99023
0.98985
0.9902
0.98997
0.99036
0.99002
0.99054
0.98961
0.99002
0.98965
0.98954
0.98951
0.98964
0.98993
0.99
0.99018
0.98994
0.99009
0.9903
0.99011
0.99053
0.9899
0.99013
0.98955
0.9895
0.98953
0.98957
0.98966
0.99067
0.99073
0.99007
0.9901
0.98953
0.98991
0.9905
0.99081
0.99109
0.99085
0.99097
0.99166
0.99175
0.99186
0.99175
0.99145
0.99153
0.99122
0.99103
0.99195
0.99182
0.99147
0.99204
0.99175
0.99191
0.99213
0.99219
0.99213
0.99212
0.99165
0.99228
0.99192
0.99196
0.99144
0.99152
0.99127
0.99156
0.99134
0.99106
0.9908
0.99043
0.99103
0.99115
0.99231
0.99187
0.99158
0.9918
0.99192
0.99223
0.99226
0.99133
0.99114
0.99078
0.99116
0.99108
0.9913
0.991
0.99079
0.99072
0.99138
0.99077
0.99201
0.9913
0.9906
0.99101
0.99114
0.99095
0.99074
0.99103
0.99148
0.99168
0.99191
0.99092
0.99103
0.99007
0.99073
0.99083
0.9904
0.99046
0.99048
0.99096
0.99074
0.99101
0.99143
0.99108
0.99125
0.99088
0.99089
0.99038
0.99047
0.99054
0.9907
0.99113
0.99143
0.99129
0.99189
0.99182
0.99213
0.99177
0.99177
0.9921
0.99234
0.99201
0.99273
0.99217
0.99153
0.99152
0.99095
0.99107
0.99102
0.9915
0.99146
0.99139
0.99126
0.99168
0.99185
0.99158
0.99174
0.99155
0.99153
0.99146
0.99193
0.9925
0.99298
0.99339
0.99362
0.99393
0.99411
0.99437
0.994
0.99385
0.99407
0.99367
0.99426
0.99409
0.99399
0.99397
0.9934
0.99398
0.99385
0.99363
0.99359
0.99402
0.99436
0.99451
0.99466
0.99465
0.99465
0.99488
0.9949
0.99476
0.99414
0.99324
0.99282
0.99326
0.99257
0.99268
0.99281
0.99297
0.99215
0.99189
0.99167
0.99132
0.99055
0.99082
0.99127
0.99153
0.99214
0.99207
0.99242
0.99227
0.99188
0.99156
0.99199
0.99227
0.99261
0.99262
0.9929
0.9939
0.99385
0.99416
0.99395
0.99357
0.99391
0.99401
0.99405
0.99381
0.9934
0.99355
0.99346
0.99286
0.9928
0.99291
0.99334
0.99357
0.99352
0.9935
0.9932
0.99324
0.99305
0.99312
0.99255
0.99195
0.9919
0.99153
0.99154
0.9905
0.9909
0.99126
0.99041
0.99097
0.9913
0.99077
0.99069
0.99109
0.99045
0.99073
0.99116
0.99124
0.99095
0.99157
0.99169
0.99177
0.99223
0.99209
0.99168
0.99173
0.99165
0.99208
0.99231
0.99228
0.99181
0.99169
0.99166
0.99119
0.99167
0.99162
0.99124
0.99119
0.99129
0.99143
0.9918
0.99195
0.99209
0.99243
0.99223
0.99217
0.99185
0.99216
0.99187
0.99159
0.99175
0.99179
0.99233
0.99215
0.99222
0.99217
0.99206
0.99195
0.99191
0.99261
0.99238
0.99257
0.99252
0.9924
0.99199
0.9916
0.99202
0.99182
0.99225
0.99199
0.99253
0.99277
0.99293
0.99393
0.99397
0.99339
0.99369
0.99378
0.9936
0.99338
0.99278
0.9926
0.99176
0.99153
0.99248
0.99235
0.99218
0.99223
0.99278
0.99311
0.99269
0.99254
0.9927
0.99285
0.9926
0.99293
0.99235
0.99224
0.9921
0.99228
0.99192
0.99204
0.99196
0.99238
0.99229
0.99236
0.99298
0.99294
0.99307
0.99404
0.99421
0.99411
0.99415
0.99398
0.99374
0.9933
0.99357
0.99388
0.9939
0.99392
0.994
0.99331
0.99389
0.99347
0.99403
0.99401
0.99459
0.99459
0.99497
0.99548
0.99625
0.99604
0.99596
0.99577
0.99599
0.99556
0.99557
0.99528
0.99522
0.99507
0.99453
0.99435
0.99397
0.99399
0.9941
0.99421
0.99424
0.99443
0.99477
0.9952
0.99555
0.99604
0.99613
0.99634
0.99601
0.99614
0.99622
0.99612
0.99651
0.99571
0.99594
0.99516
0.99574
0.99557
0.9953
0.99496
0.99421
0.99423
0.99394
0.9941
0.99413
0.99437
0.99444
0.99432
0.99448
0.9949
0.99485
0.99501
0.99455
0.9945
0.99471
0.99494
0.9953
0.99448
0.9939
0.99431
0.9944
0.994
0.99418
0.99445
0.99493
0.9955
0.99541
0.99598
0.99532
0.99542
0.99491
0.99508
0.99504
0.99486
0.99502
0.99485
0.99422
0.99422
0.99401
0.99389
0.99396
0.9942
0.99405
0.9938
0.99423
0.99472
0.99425
0.9941
0.99419
0.99374
0.99395
0.99389
0.99453
0.99473
0.99511
0.99525
0.99545
0.9953
0.99557
0.99545
0.99578
0.99594
0.99555
0.99551
0.99569
0.99516
0.99551
0.99527
0.99515
0.99476
0.99495
0.99484
0.99473
0.99412
0.99459
0.99511
0.99518
0.99542
0.99574
0.99581
0.99572
0.99546
0.99612
0.99672
0.99689
0.9971
0.99746
0.99716
0.9972
0.99731
0.99741
0.99676
0.99676
0.99646
0.99633
0.99624
0.99562
0.99581
0.99556
0.99573
0.99583
0.99616
0.99602
0.99574
0.99552
0.99555
0.99599
0.99654
0.99725
0.99712
0.9967
0.99643
0.99686
0.99659
0.99637
0.99591
0.99642
0.9971
0.99697
0.99711
0.99725
0.99634
0.99646
0.99665
0.99693
0.99711
0.99706
0.99678
0.99665
0.99629
0.99663
0.99642
0.99635
0.99614
0.99578
0.99586
0.99563
0.99556
0.99579
0.99638
0.9968
0.99668
0.99754
0.99698
0.99716
0.99733
0.99807
0.99881
0.99858
0.99884
0.99924
0.99947
0.99971
0.99946
0.99976
0.99888
0.99867
0.99808
0.99784
0.99767
0.9975
0.99731
0.99677
0.99707
0.99719
0.99743
0.99749
0.99795
0.99825
0.99726
0.99703
0.99671
0.99693
0.99596
0.99614
0.99604
0.99518
0.9953
0.99513
0.99442
0.99424
0.99462
0.99383
0.99406
0.99397
0.99321
0.99283
0.99244
0.99226
0.99243
0.99313
0.99288
0.99327
0.99389
0.99379
0.99323
0.99368
0.99342
0.993
0.9932
0.99271
0.9927
0.99291
0.99299
0.99284
0.99237
0.99265
0.99276
0.99227
0.99241
0.99269
0.99236
0.99297
0.99234
0.99301
0.99245
0.99226
0.99285
0.99257
0.99242
0.99224
0.99211
0.9923
0.99247
0.99168
0.99205
0.99194
0.99216
0.99255
0.99296
0.9926
0.99252
0.99232
0.99287
0.99327
0.99305
0.9927
0.9921
0.99175
0.99245
0.9925
0.99269
0.99303
0.99376
0.99401
0.99416
0.99477
0.99403
0.99476
0.99441
0.99469
0.99463
0.99471
0.99476
0.995
0.99465
0.99442
0.99465
0.99513
0.9954
0.99525
0.99595
0.99582
0.99586
0.99648
0.99642
0.99677
0.99664
0.99668
0.99678
0.99727
0.99744
0.99719
0.99684
0.99696
0.99697
0.9969
0.99673
0.99667
0.99645
0.99704
0.99714
0.99741
0.99781
0.99739
0.99771
0.99694
0.99676
0.99679
0.9969
0.99678
0.99672
0.99637
0.99659
0.99663
0.99678
0.99656
0.99647
0.99636
0.99596
0.99625
0.99628
0.99632
0.99615
0.99628
0.99664
0.99646
0.99647
0.99642
0.99673
0.99678
0.99669
0.99641
0.99621
0.99603
0.99621
0.99662
0.99678
0.99681
0.99661
0.99684
0.99698
0.9977
0.99723
0.99757
0.99782
0.99761
0.99731
0.9974
0.9975
0.99773
0.99832
0.99807
0.99815
0.99839
0.99812
0.99795
0.99851
0.99858
0.99828
0.99782
0.9979
0.99782
0.99815
0.99833
0.99856
0.99872
0.99859
0.99928
0.99925
0.99967
1.00014
1.00009
1.00029
1.00089
1.00042
1.00024
1.00047
1.00063
1.00113
1.0002
0.99997
0.99972
0.99946
0.99919
0.99868
0.9984
0.99698
0.99683
0.99624
0.9962
0.99545
0.99565
0.99516
0.9955
0.99525
0.99489
0.99477
0.99484
0.99485
0.99515
0.99522
0.99548
0.99556
0.99581
0.99603
0.99583
0.99596
0.99646
0.99632
0.99702
0.9972
0.99807
0.99776
0.99718
0.9972
0.99706
0.9967
0.99703
0.99686
0.9969
0.99738
0.99726
0.99738
0.99723
0.99717
0.99736
0.99741
0.99725
0.99731
0.99714
0.99744
0.99785
0.9977
0.99748
0.99749
0.9976
0.99707
0.99702
0.99709
0.9973
0.99702
0.99664
0.99621
0.99608
0.99661
0.99639
0.9962
0.99684
0.99636
0.99669
0.99697
0.9971
0.99778
0.99737
0.99732
0.99776
0.99763
0.99804
0.99851
0.99875
0.9989
0.99899
0.99897
0.9992
0.99953
0.99963
0.9998
0.99937
0.99887
0.99928
0.99932
0.99977
0.99932
0.9995
0.99942
0.99925
0.99893
0.99881
0.99876
0.99896
0.99915
0.99965
1.00013
1.00032
1.00053
0.99994
0.99982
0.99995
0.99946
0.99975
1.00019
1.00062
1.00058
1.00049
1.00084
1.00038
1.00026
1.00056
1
0.99948
0.99921
0.9986
0.99851
0.99826
0.9986
0.99843
0.99817
0.99814
0.99757
0.99704
0.99736
0.99695
0.9976
0.99787
0.99736
0.99812
0.9974
0.99765
0.99748
0.99796
0.99781
0.99757
0.99719
0.99729
0.99726
0.99746
0.99709
0.99722
0.99697
0.99709
0.99734
0.99674
0.99656
0.99675
0.99683
0.99716
0.99681
0.99715
0.99746
0.99732
0.99832
1.01226
1.00972
1.01735
1.00902
1.02837
1.03469