0.56652
0.55008
0.56942
0.54918
0.56825
0.54964
0.5676
0.54723
0.56665
0.54766
0.56587
0.54913
0.56779
0.54825
0.5624
0.54977
0.56567
0.54894
0.57096
0.54375
0.56513
0.54498
0.56831
0.54592
0.56843
0.54973
0.56533
0.54809
0.56643
0.54286
0.56944
0.54689
0.56703
0.54975
0.5649
0.54525
0.5645
0.54586
0.56873
0.54143
0.56539
0.54325
0.56602
0.54563
0.56304
0.54239
0.56677
0.54608
0.56628
0.54408
0.56543
0.54515
0.56666
0.54053
0.5635
0.54537
0.56049
0.54419
0.56534
0.54168
0.56081
0.54226
0.56371
0.54072
0.56065
0.53742
0.5595
0.53903
0.5541
0.53829
0.55888
0.53359
0.55228
0.53524
0.54843
0.52684
0.55204
0.52651
0.54006
0.51372
0.53191
0.51322
0.52368
0.50268
0.51119
0.48631
0.49865
0.47739
0.49443
0.46178
0.47596
0.4479
0.46051
0.43874
0.44493
0.4236
0.43417
0.41026
0.41956
0.39777
0.408
0.38466
0.39738
0.37573
0.38834
0.36748
0.37932
0.35957
0.37127
0.3512
0.36518
0.34534
0.35483
0.33768
0.34963
0.33153
0.34084
0.3246
0.33369
0.31711
0.32842
0.3109
0.32229
0.30479
0.31572
0.3016
0.3122
0.29571
0.30704
0.29035
0.30212
0.28782
0.29737
0.29236
0.29291
0.27762
0.28715
0.27249
0.28342
0.26774
0.2775
0.26313
0.2748
0.26118
0.26971
0.2573
0.26774
0.25224
0.26273
0.25114
0.26253
0.24758
0.25993
0.24619
0.25503
0.24315
0.2536
0.24142
0.25126
0.23873
0.24984
0.23874
0.24785
0.23432
0.24439
0.23238
0.24394
0.23158
0.2415
0.22873
0.23842
0.22726
0.23729
0.22541
0.23462
0.22356
0.23216
0.22053
0.23289
0.22259
0.23098
0.22184
0.23169
0.22209
0.23197
0.2215
0.232
0.2229
0.2335
0.22251
0.23391
0.22377
0.23388
0.22317
0.23443
0.22451
0.23702
0.22511
0.23638
0.2256
0.23575
0.22717
0.23605
0.22528
0.23593
0.22445
0.23615
0.22518
0.23578
0.22605
0.23661
0.22575
0.23757
0.22783
0.23868
0.22687
0.2386
0.23015
0.24224
0.22964
0.24493
0.2329
0.24555
0.23631
0.24724
0.23688
0.25097
0.2398
0.2531
0.24271
0.25501
0.24577
0.25789
0.24917
0.26133
0.25063
0.26583
0.25582
0.26664
0.25819
0.27361
0.26265
0.27753
0.26565
0.28091
0.27142
0.28922
0.27648
0.28932
0.28308
0.29636
0.28375
0.29885
0.28963
0.30217
0.29134
0.30577
0.29435
0.3076
0.29517
0.30769
0.29512
0.30743
0.29559
0.30752
0.29158
0.30542
0.29223
0.30541
0.28912
0.30262
0.28603
0.30124
0.28633
0.29929
0.28617
0.29867
0.28478
0.30003
0.28487
0.30164
0.28772
0.30209
0.28671
0.30149
0.29009
0.29923
0.29054
0.30478
0.29284
0.30657
0.29468
0.31007
0.29594
0.31266
0.29936
0.31512
0.30144
0.31814
0.30622
0.32113
0.307
0.32247
0.31235
0.32748
0.31343
0.3281
0.31572
0.33525
0.3172
0.33525
0.3234
0.33895
0.32771
0.34144
0.33163
0.34769
0.33217
0.35211
0.33832
0.3536
0.34153
0.36008
0.34668
0.36536
0.35239
0.36906
0.35506
0.37362
0.35946
0.37973
0.36248
0.38187
0.37098
0.38789
0.37458
0.39371
0.37794
0.39755
0.38361
0.40367
0.39099
0.40845
0.39705
0.41412
0.40189
0.42192
0.40844
0.42401
0.41202
0.43242
0.41587
0.43861
0.42408
0.4428
0.42972
0.44892
0.43548
0.45401
0.43955
0.45714
0.4432
0.46378
0.45005
0.46855
0.4541
0.47435
0.4576
0.47584
0.4604
0.47893
0.46527
0.48216
0.46754
0.48524
0.47078
0.48631
0.47468
0.49138
0.47522
0.49243
0.47461
0.49347
0.47385
0.49329
0.47702
0.49493
0.47845
0.49784
0.48252
0.49731
0.47758
0.49569
0.47955
0.49947
0.4798
0.49787
0.48058
0.49694
0.48218
0.50002
0.48188
0.49891
0.48224
0.50034
0.4813
0.49963
0.48361
0.49888
0.48202
0.49973
0.48072
0.49712
0.47868
0.49566
0.47744
0.49146
0.47442
0.4908
0.47356
0.48925
0.46914
0.48287
0.46478
0.48142
0.46293
0.47594
0.46021
0.47478
0.45684
0.47056
0.45455
0.46965
0.44835
0.46608
0.44398
0.45842
0.43935
0.45648
0.43382
0.45147
0.43104
0.44567
0.42856
0.44345
0.42354
0.43593
0.41707
0.43179
0.41539
0.42685
0.40778
0.4223
0.40574
0.41733
0.40003
0.41313
0.39503
0.40504
0.38704
0.40187
0.38424
0.39769
0.37954
0.39208
0.37506
0.38754
0.37047
0.38315
0.36742
0.37932
0.36069
0.3748
0.35588
0.36875
0.35287
0.36364
0.34632
0.3601
0.34327
0.35606
0.33999
0.3529
0.33647
0.34802
0.33287
0.34702
0.32949
0.34087
0.32409
0.33867
0.32407
0.33503
0.32149
0.3329
0.31892
0.3319
0.31732
0.32863
0.31423
0.32707
0.31301
0.32518
0.30909
0.32277
0.30846
0.32152
0.30616
0.31817
0.302
0.31724
0.30165
0.3147
0.29842
0.31057
0.29671
0.30769
0.29502
0.30432
0.28925
0.30186
0.28554
0.2965
0.28243
0.29344
0.27938
0.28758
0.27675
0.28507
0.27013
0.28139
0.26786
0.27837
0.26428
0.27557
0.26166
0.27283
0.26002
0.27099
0.25706
0.2698
0.25562
0.26593
0.25394
0.26559
0.25079
0.26126
0.24854
0.25892
0.2457
0.25612
0.24422
0.25358
0.23968
0.24922
0.23524
0.24477
0.23019
0.23873
0.22725
0.23565
0.22191
0.23096
0.21984
0.22809
0.21631
0.22448
0.21275
0.22171
0.20931
0.2186
0.20859
0.21759
0.20635
0.21433
0.2044
0.21214
0.20189
0.21085
0.20117
0.20999
0.19812
0.20622
0.19759
0.20396
0.19493
0.20454
0.19408
0.20262
0.19387
0.20057
0.19194
0.20024
0.19036
0.20067
0.19061
0.19999
0.18994
0.19826
0.18996
0.19741
0.18916
0.19749
0.1899
0.19679
0.18989
0.19697
0.18877
0.19734
0.18901
0.19654
0.18988
0.1984
0.19094
0.1988
0.19108
0.19936
0.19225
0.20041
0.19352
0.20188
0.19525
0.20369
0.19741
0.20458
0.19823
0.20631
0.20009
0.20908
0.20147
0.21104
0.20526
0.21346
0.2059
0.21464
0.20823
0.21671
0.20973
0.21862
0.21084
0.21994
0.21425
0.22301
0.21688
0.2243
0.21879
0.2264
0.22088
0.22897
0.2243
0.23105
0.22607
0.23327
0.22858
0.23636
0.23264
0.23912
0.23611
0.24312
0.24056
0.2476
0.24425
0.25112
0.2486
0.25614
0.25405
0.25993
0.25828
0.26687
0.26289
0.2699
0.2682
0.27435
0.27401
0.27967
0.2787
0.28632
0.28474
0.2915
0.29095
0.29708
0.29601
0.30285
0.30315
0.30886
0.30848
0.31532
0.31425
0.32182
0.32023
0.32782
0.32754
0.33464
0.33309
0.34029
0.3403
0.34642
0.34657
0.35197
0.35235
0.35949
0.35892
0.36542
0.36644
0.37346
0.37201
0.38016
0.37963
0.38649
0.38568
0.39318
0.39318
0.40072
0.39997
0.40682
0.40711
0.41369
0.4144
0.41983
0.42114
0.42722
0.42728
0.43365
0.43553
0.44158
0.44274
0.44858
0.44973
0.45484
0.45664
0.46215
0.46374
0.47015
0.47137
0.47712
0.47847
0.48421
0.48568
0.49078
0.49216
0.49831
0.499
0.50559
0.50665
0.51288
0.51448
0.52011
0.5212
0.52645
0.52788
0.53428
0.53429
0.53935
0.54172
0.54731
0.54907
0.55379
0.55563
0.56064
0.56252
0.56797
0.56925
0.57445
0.57493
0.58095
0.58164
0.58721
0.58863
0.59351
0.5951
0.59978
0.60088
0.60638
0.60818
0.61213
0.61426
0.61847
0.62095
0.62404
0.6263
0.63045
0.63226
0.63649
0.63798
0.64119
0.64342
0.64722
0.64843
0.65243
0.65414
0.65957
0.6604
0.66439
0.66641
0.67039
0.67073
0.67644
0.67719
0.68241
0.68296
0.68796
0.68936
0.69356
0.69497
0.69886
0.70125
0.70559
0.7075
0.71291
0.71508
0.72
0.72216
0.72819
0.73066
0.73437
0.73592
0.74164
0.74303
0.74856
0.75087
0.75537
0.75721
0.76247
0.7658
0.76904
0.77437
0.77773
0.78089
0.78661
0.78825
0.791
0.79352
0.79532
0.79685
0.80059
0.80085
0.80485
0.80525
0.8087
0.80947
0.81277
0.81325
0.81662
0.81647
0.81965
0.82055
0.82313
0.82407
0.82644
0.82797
0.83106
0.83319
0.83316
0.836
0.8386
0.83939
0.84207
0.84255
0.84615
0.84782
0.84996
0.85099
0.85382
0.85409
0.85693
0.85822
0.8602
0.86158
0.86452
0.86553
0.86644
0.86811
0.87065
0.8717
0.87401
0.87421
0.87629
0.87716
0.8787
0.88045
0.88213
0.88317
0.88391
0.8849
0.88585
0.88767
0.88965
0.89053
0.8917
0.89227
0.89301
0.89398
0.8959
0.8973
0.89769
0.89943
0.90131
0.90219
0.90283
0.90297
0.90547
0.90545
0.90714
0.90736
0.90877
0.90823
0.9097
0.90971
0.91081
0.91179
0.91245
0.91385
0.91371
0.91479
0.91585
0.91638
0.91784
0.91841
0.92006
0.92071
0.92198
0.92341
0.92502
0.92527
0.92568
0.92453
0.92571
0.92455
0.92577
0.9271
0.92773
0.92832
0.93053
0.93052
0.93238
0.93218
0.93408
0.93442
0.93603
0.93723
0.93863
0.93967
0.94037
0.94222
0.94267
0.94389
0.94526
0.94686
0.9474
0.94682
0.9468
0.94697
0.94572
0.94522
0.94557
0.94607
0.94683
0.94688
0.94735
0.94885
0.9496
0.94945
0.94998
0.94929
0.95036
0.9517
0.95155
0.95225
0.95334
0.95258
0.95258
0.95371
0.95413
0.9553
0.95671
0.95683
0.95742
0.95699
0.958
0.95901
0.95977
0.95954
0.95964
0.95865
0.95844
0.95846
0.95815
0.95894
0.95792
0.95863
0.95938
0.95935
0.96119
0.96227
0.96255
0.96292
0.96163
0.96212
0.96104
0.96239
0.96157
0.96208
0.96139
0.96125
0.96054
0.96099
0.96082
0.96166
0.96191
0.96341
0.96254
0.9643
0.96431
0.96661
0.96524
0.9666
0.9668
0.96761
0.9672
0.96788
0.9679
0.96757
0.96887
0.96877
0.96963
0.9712
0.97056
0.972
0.97302
0.97352
0.97414
0.97425
0.97384
0.97417
0.97515
0.97482
0.97482
0.97535
0.97495
0.97545
0.9756
0.976
0.97638
0.97684
0.97731
0.97707
0.97782
0.97826
0.97958
0.98014
0.98074
0.98113
0.98229
0.98389
0.98307
0.98296
0.98149
0.98095
0.97846
0.97864
0.97923
0.97898
0.97925
0.97949
0.97984
0.97953
0.98042
0.9808
0.98149
0.98282
0.98203
0.98221
0.9812
0.98038
0.97889
0.97951
0.97988
0.98003
0.98014
0.98225
0.98278
0.98271
0.9831
0.98337
0.98438
0.98358
0.98422
0.98529
0.98557
0.98741
0.98958
0.99025
0.99042
0.98957
0.98897
0.98832
0.9868
0.98582
0.98529
0.98453
0.98304
0.98307
0.98199
0.98279
0.98353
0.98351
0.98296
0.9846
0.98712
0.99096
0.99016
0.9883
0.98601
0.98197
0.98083
0.98106
0.9819
0.98257
0.98122
0.97988
0.98038
0.9813
0.9805
0.97922
0.97739
0.97573
0.97323
0.97336
0.9706
0.96997
0.96953
0.96798
0.9664
0.96686
0.96291
0.96123
0.95834
0.95855
0.95674
0.95514
0.95393
0.95448
0.95266
0.95524
0.95679
0.95643
0.95501
0.95272
0.95197
0.95267
0.95134
0.95175
0.95097
0.95271
0.95235
0.95319
0.95233
0.95229
0.9503
0.94935
0.94614
0.94732
0.94654
0.94605
0.94248
0.94147
0.93997
0.94092
0.93861
0.93523
0.93346
0.9327
0.92933
0.9271
0.92674
0.92455
0.92058
0.92186
0.91878
0.92003
0.91855
0.91803
0.91672
0.91617
0.91354
0.91595
0.91178
0.91684
0.91174
0.91633
0.90983
0.91268
0.91219
0.9136
0.91242
0.91109
0.9091
0.9146
0.90759
0.90918
0.91081
0.90964
0.90984
0.9078
0.90804
0.90844
0.90341
0.90539
0.90519
0.90622
0.90386
0.90589
0.90449
0.90522
0.90534
0.90914
0.90701
0.90415
0.90501
0.90927
0.90571
0.90599
0.90782
0.91024
0.90575
0.91011
0.91094
0.90824
0.90707
0.90925
0.9048
0.90881
0.90791
0.90732
0.90523
0.90718
0.9068
0.90645
0.9047
0.91034
0.90307
0.90696
0.90294
0.90786
0.90618
0.90533
0.9036
0.90777
0.90775
0.90718
0.9075
0.90643
0.90941
0.90595
0.90694
0.90576
0.90947
0.90632
0.90756
0.90637
0.90736
0.9042
0.90907
0.90543
0.90839
0.90368
0.90708
0.9058
0.90587
0.90156
0.90357
0.90232
0.90553
0.90353
0.90435
0.90274
0.90211
0.90357
0.90285
0.90126
0.90116
0.90191
0.90233
0.89876
0.90352
0.90082
0.90189
0.89997
0.90302
0.90002
0.90292
0.90073
0.90195
0.90192
0.90068
0.90091
0.90366
0.90271
0.90344
0.89963
0.90357
0.90047
0.90486
0.9014
0.90429
0.90178
0.9017
0.90183
0.90373
0.90123
0.90465
0.90329
0.90345
0.90231
0.90422
0.90237
0.90493
0.89957
0.90188
0.90216
0.90237
0.90097
0.90288
0.90166
0.90476
0.90034
0.90204
0.90328
0.90619
0.90262
0.90262
0.90265
0.90326
0.89952
0.90395
0.90316
0.90335
0.90326
0.90561
0.90204
0.90697
0.90371
0.90415
0.90342
0.91018
0.90804
0.90855
0.90601
0.90525
0.90183
0.90659
0.90267
0.90481
0.90127
0.90504
0.90299
0.9036
0.90263
0.90545
0.90011
0.90433
0.90263
0.90515
0.90514
0.90428
0.90134
0.90153
0.90317
0.90492
0.90283
0.90595
0.90092
0.90488
0.90223
0.9031
0.90237
0.90243
0.89944
0.90142
0.89803
0.90114
0.89934
0.89996
0.8993
0.90128
0.89927
0.90032
0.89933
0.90117
0.90125
0.90109
0.89954
0.90088
0.90063
0.89897
0.8982
0.89924
0.8986
0.89846
0.8981
0.89832
0.89598
0.89887
0.89503
0.89951
0.89672
0.90004
0.89771
0.89781
0.89535
0.89766
0.89499
0.89895
0.89641
0.89649
0.89554
0.89738
0.89392
0.89707
0.89638
0.89794
0.89286
0.89626
0.8963
0.89686
0.89517
0.89583
0.89595
0.89558
0.89499
0.89615
0.89353
0.89759
0.89516
0.89573
0.89399
0.89522
0.89179
0.89534
0.89248
0.89561
0.89267
0.8929
0.89387
0.89238
0.89121
0.89253
0.89157
0.89365
0.8918
0.89467
0.89101
0.89419
0.89299
0.89424
0.89468
0.89542
0.89221
0.89313
0.89358
0.8934
0.89105
0.89547
0.89044
0.89345
0.89144
0.89212
0.88982
0.89442
0.88946
0.89367
0.88962
0.88912
0.89104
0.89217
0.89106
0.89277
0.88933
0.89152
0.88916
0.89312
0.89064
0.8916
0.8888
0.89057
0.88894
0.89034
0.88742
0.88901
0.88896
0.89039
0.88855
0.88924
0.88483
0.88845
0.88534
0.88636
0.88418
0.88428
0.88286
0.88478
0.88277
0.88389
0.8801
0.87912
0.88159
0.88015
0.8833
0.88293
0.88393
0.88218
0.88331
0.88258
0.88555
0.88336
0.88541
0.88293
0.88415
0.88235
0.88208
0.88136
0.88172
0.88126
0.88138
0.88093
0.88045
0.8806
0.88141
0.87981
0.88126
0.87863
0.88006
0.87905
0.8779
0.87774
0.87888
0.87799
0.87902
0.8772
0.87737
0.87789
0.87705
0.87646
0.87806
0.87738
0.87752
0.87563
0.87746
0.87422
0.87565
0.87554
0.87547
0.87516
0.87449
0.87442
0.87588
0.87024
0.8744
0.87184
0.87181
0.87129
0.87203
0.87101
0.87173
0.86928
0.87217
0.86968
0.8711
0.87086
0.8707
0.86817
0.86909
0.86819
0.86997
0.86769
0.86876
0.86778
0.8669
0.86713
0.86836
0.86592
0.86596
0.86432
0.86619
0.86369
0.86548
0.86269
0.86425
0.86311
0.86427
0.86208
0.8638
0.86134
0.86289
0.86099
0.86209
0.86131
0.86083
0.86002
0.86115
0.85819
0.85879
0.85854
0.85842
0.85912
0.85812
0.85786
0.85727
0.85508
0.85614
0.85573
0.85782
0.85651
0.85522
0.85456
0.8547
0.8537
0.85472
0.85262
0.85433
0.85272
0.85174
0.85014
0.8518
0.85034
0.85213
0.84978
0.8497
0.84729
0.84859
0.84714
0.84768
0.84699
0.84841
0.84588
0.84713
0.8451
0.84525
0.84434
0.84546
0.84289
0.84345
0.84229
0.84322
0.84065
0.8411
0.83973
0.84115
0.83864
0.83927
0.83763
0.83949
0.83854
0.8383
0.83759
0.83811
0.83725
0.83742
0.83479
0.83732
0.83351
0.83552
0.83225
0.83283
0.83193
0.8333
0.83172
0.83188
0.83021
0.83188
0.82858
0.83169
0.82862
0.83051
0.82844
0.82873
0.82673
0.82782
0.82583
0.82604
0.8247
0.82562
0.82434
0.82364
0.82097
0.82225
0.82151
0.82311
0.82158
0.82199
0.82008
0.82102
0.81952
0.82018
0.8182
0.81925
0.81706
0.81925
0.81748
0.81788
0.81575
0.81375
0.81462
0.81459
0.81247
0.81463
0.81227
0.81335
0.80919
0.81182
0.8095
0.8119
0.808
0.80931
0.80763
0.80764
0.80682
0.80644
0.80436
0.80484
0.80418
0.80503
0.80415
0.80291
0.8029
0.80228
0.80089
0.80125
0.79968
0.80042
0.79773
0.80025
0.79743
0.7985
0.79704
0.79767
0.79619
0.79697
0.79433
0.79411
0.79322
0.79488
0.79184
0.79286
0.79089
0.79105
0.79046
0.79112
0.79006
0.79011
0.78835
0.78962
0.78783
0.78837
0.78654
0.7878
0.78572
0.78617
0.78465
0.78511
0.78396
0.78262
0.78284
0.78055
0.78253
0.78014
0.78154
0.77882
0.77951
0.77702
0.77767
0.7777
0.77735
0.77446
0.77562
0.77386
0.77494
0.77377
0.77366
0.77165
0.77177
0.77085
0.77129
0.77004
0.77034
0.76865
0.76926
0.76807
0.76792
0.76721
0.76661
0.76447
0.76536
0.76375
0.76597
0.76335
0.76331
0.76212
0.76305
0.76114
0.76108
0.75913
0.76047
0.75798
0.75937
0.75636
0.75838
0.75663
0.75671
0.75396
0.75559
0.75393
0.75512
0.75329
0.7542
0.75255
0.75284
0.7516
0.75123
0.75002
0.74965
0.74801
0.74908
0.74783
0.74833
0.74685
0.74763
0.74504
0.74591
0.74488
0.74559
0.74393
0.74349
0.74248
0.74328
0.7423
0.7421
0.73961
0.741
0.73899
0.7394
0.73788
0.73835
0.738
0.73806
0.73674
0.73731
0.73574
0.73617
0.73459
0.73489
0.73296
0.73419
0.73193
0.73305
0.73184
0.73302
0.73125
0.73152
0.73004
0.73079
0.7283
0.72926
0.72772
0.72882
0.72825
0.72815
0.72682
0.72639
0.7254
0.7263
0.72521
0.72508
0.72324
0.7249
0.72273
0.72254
0.72128
0.72134
0.72027
0.72058
0.71984
0.72103
0.71915
0.72071
0.71943
0.72
0.71911
0.71872
0.71765
0.71791
0.71666
0.71709
0.71558
0.71615
0.71528
0.7151
0.71454
0.71522
0.71354
0.7144
0.7135
0.71343
0.71244
0.7134
0.71084
0.71237
0.7109
0.71126
0.70991
0.71069
0.70937
0.71057
0.70908
0.70996
0.70917
0.70949
0.7084
0.7096
0.7072
0.70777
0.70672
0.70814
0.70753
0.7076
0.70612
0.70662
0.70595
0.70667
0.7054
0.70652
0.70566
0.70641
0.70554
0.70519
0.70405
0.7058
0.70389
0.70429
0.7035
0.70437
0.70265
0.70341
0.70273
0.70342
0.70202
0.70259
0.70199
0.70219
0.70196
0.70298
0.70232
0.70224
0.70173
0.70341
0.70238
0.70273
0.70205
0.70275
0.70201
0.70295
0.70182
0.7021
0.70199
0.70285
0.7021
0.70162
0.70176
0.70253
0.7013
0.70257
0.70219
0.70311
0.70256
0.70302
0.70341
0.70313
0.7026
0.7044
0.7031
0.70443
0.70366
0.70487
0.70389
0.7049
0.70458
0.70479
0.70456
0.70466
0.7043
0.70613
0.70642
0.70747
0.70668
0.70798
0.70756
0.70884
0.70766
0.70969
0.70848
0.70987
0.71013
0.71116
0.71056
0.71216
0.71265
0.71404
0.71403
0.7151
0.71484
0.71567
0.71537
0.71687
0.71699
0.71801
0.71734
0.71892
0.7209
0.72084
0.72174
0.72154
0.72412
0.72326
0.72493
0.72513
0.72633
0.727
0.7292
0.72911
0.73102
0.73335
0.73531
0.73521
0.73674
0.73691
0.73824
0.73853
0.73893
0.73889
0.73953
0.73955
0.74049
0.74115
0.74252
0.74283
0.74464
0.74444
0.74635
0.74658
0.7484
0.75001
0.75214
0.75341
0.75596
0.75733
0.75906
0.75963
0.76178
0.76305
0.7647
0.76582
0.76782
0.76745
0.76926
0.76951
0.77205
0.77323
0.77456
0.77561
0.77748
0.77876
0.7798
0.78175
0.78295
0.78388
0.78561
0.78685
0.78922
0.78926
0.7914
0.79266
0.79465
0.79511
0.79778
0.7991
0.80157
0.80212
0.80464
0.8056
0.80857
0.8097
0.81221
0.81308
0.81471
0.81511
0.81532
0.8163
0.81836
0.81939
0.82077
0.82233
0.82356
0.82518
0.82699
0.82825
0.82976
0.83103
0.83309
0.83443
0.83562
0.83726
0.83941
0.84023
0.84198
0.84353
0.84575
0.84753
0.84924
0.85068
0.85307
0.85452
0.85608
0.85773
0.8596
0.86111
0.86322
0.86429
0.86655
0.86811
0.86957
0.87049
0.87206
0.87319
0.87503
0.87493
0.87708
0.87806
0.8799
0.88049
0.88223
0.88313
0.88561
0.88698
0.88807
0.88951
0.89158
0.89292
0.89416
0.89536
0.89697
0.89735
0.89892
0.90111
0.90125
0.90216
0.90328
0.90411
0.90573
0.90605
0.90768
0.90977
0.91212
0.91197
0.91409
0.9146
0.9158
0.91679
0.91867
0.91915
0.92025
0.92079
0.9226
0.9219
0.92421
0.92443
0.92578
0.9271
0.92779
0.9285
0.93105
0.93174
0.93209
0.93329
0.93474
0.93547
0.93626
0.93686
0.9385
0.93939
0.93905
0.94036
0.94094
0.94226
0.94387
0.94456
0.94492
0.94539
0.94657
0.94652
0.94799
0.94872
0.94884
0.94944
0.95124
0.95113
0.9507
0.95191
0.95278
0.95345
0.95463
0.95442
0.95601
0.95599
0.95654
0.95727
0.95822
0.95743
0.95917
0.95915
0.9598
0.96075
0.96208
0.96267
0.96247
0.96355
0.96299
0.96339
0.96508
0.96499
0.96581
0.96631
0.96675
0.96719
0.96687
0.96822
0.96773
0.96779
0.96762
0.96869
0.9692
0.96957
0.97026
0.97114
0.97142
0.97155
0.97171
0.9728
0.97289
0.97303
0.97313
0.97366
0.97375
0.97388
0.97373
0.97374
0.97401
0.97336
0.97341
0.97297
0.97426
0.97528
0.97638
0.977
0.97749
0.97807
0.97893
0.97922
0.97961
0.97979
0.98085
0.9803
0.98027
0.98134
0.98119
0.98177
0.98246
0.98263
0.98237
0.9824
0.98278
0.9837
0.98364
0.98423
0.98448
0.98411
0.98393
0.98392
0.98354
0.98408
0.98445
0.98475
0.98502
0.98546
0.98533
0.98659
0.98621
0.98705
0.98714
0.9866
0.98678
0.98768
0.98761
0.98784
0.98812
0.98839
0.9891
0.98934
0.98941
0.98912
0.98974
0.98867
0.98894
0.98886
0.98857
0.98968
0.98973
0.99057
0.99063
0.99082
0.99058
0.99127
0.99056
0.99144
0.99021
0.99164
0.99149
0.99184
0.99165
0.99223
0.99235
0.9931
0.99337
0.99318
0.99324
0.99353
0.99329
0.99355
0.99341
0.99328
0.99364
0.99353
0.99352
0.99333
0.99278
0.99311
0.99382
0.99461
0.99352
0.994
0.9939
0.99401
0.99315
0.99274
0.99307
0.99304
0.99325
0.99369
0.99281
0.99347
0.99316
0.99326
0.99368
0.9937
0.99364
0.99353
0.99334
0.99319
0.99231
0.99293
0.99249
0.99292
0.99246
0.99402
0.99396
0.9942
0.99387
0.99478
0.99454
0.99424
0.99517
0.99464
0.99412
0.99421
0.99314
0.99374
0.99389
0.99333
0.99277
0.99358
0.99334
0.99477
0.99474
0.99497
0.99496
0.99537
0.99535
0.99583
0.99529
0.996
0.99648
0.99603
0.99605
0.99556
0.99631
0.99538
0.99566
0.9956
0.9951
0.99527
0.9948
0.99532
0.99496
0.9952
0.99504
0.9955
0.99631
0.99643
0.9961
0.99628
0.99577
0.9956
0.99628
0.99596
0.99679
0.99741
0.99647
0.99682
0.99615
0.99743
0.99691
0.99684
0.99703
0.99672
0.99675
0.99708
0.99676
0.99673
0.99665
0.99611
0.99638
0.99618
0.99606
0.99637
0.99662
0.99708
0.99672
0.99668
0.99644
0.99591
0.99673
0.99699
0.9964
0.99657
0.99675
0.9962
0.99638
0.99609
0.9961
0.9963
0.99585
0.99573
0.99619
0.99632
0.99595
0.99577
0.99589
0.99672
0.99679
0.99677
0.99744
0.99697
0.99646
0.99534
0.99584
0.99573
0.99556
0.99627
0.99615
0.99557
0.99561
0.99518
0.99588
0.99563
0.9951
0.99543
0.99496
0.99478
0.99519
0.99551
0.99535
0.99632
0.99598
0.99665
0.99628
0.99688
0.99748
0.99771
0.99769
0.99761
0.99756
0.99739
0.99693
0.99739
0.99699
0.99732
0.99708
0.99723
0.99728
0.99728
0.99746
0.9977
0.99711
0.99784
0.99755
0.99736
0.99682
0.99736
0.99663
0.99706
0.99692
0.9976
0.99677
0.99768
0.99708
0.99772
0.99631
0.99672
0.99702
0.99686
0.99661
0.99597
0.99548
0.99597
0.99537
0.99593
0.99606
0.99681
0.99652
0.9956
0.99604
0.99672
0.99661
0.99657
0.99711
0.99704
0.99774
0.9973
0.99686
0.99685
0.9971
0.99759
0.99739
0.99747
0.99743
0.99688
0.99704
0.9973
0.99742
0.99701
0.99682
0.99619
0.9966
0.99612
0.99632
0.99507
0.99631
0.99599
0.99656
0.99667
0.99676
0.99647
0.99681
0.99677
0.99612
0.9964
0.99695
0.99696
0.99608
0.99665
0.99622
0.99731
0.99662
0.99676
0.99698
0.99615
0.99619
0.9965
0.99596
0.99598
0.99543
0.99581
0.99606
0.99514
0.99571
0.99604
0.99583
0.9969
0.996
0.99647
0.99627
0.99637
0.99576
0.996
0.9965
0.99672
0.99638
0.99705
0.99673
0.99628
0.99646
0.99632
0.99664
0.99684
0.99655
0.99601
0.9962
0.99565
0.9967
0.9974
0.99739
0.99756
0.99773
0.99769
0.99719
0.99725
0.99712
0.9969
0.99655
0.99649
0.99584
0.99642
0.99543
0.99435
0.9953
0.99504
0.99502
0.9949
0.99487
0.99435
0.99384
0.99409
0.99436
0.99433
0.99467
0.99503
0.99499
0.99516
0.99532
0.99566
0.99567
0.99484
0.99478
0.99462
0.99651
0.99546
0.99551
0.99635
0.9961
0.99527
0.99565
0.99563
0.99675
0.99686
0.99624
0.99679
0.99648
0.99704
0.99746
0.99702
0.99745
0.99721
0.99666
0.99589
0.99479
0.99482
0.99504
0.99516
0.99534
0.99531
0.99543
0.99561
0.99547
0.99545
0.99587
0.99515
0.99561
0.99548
0.99561
0.99612
0.99645
0.99671
0.99677
0.99717
0.99712
0.99741
0.99781
0.99728
0.99661
0.9967
0.99713
0.99708
0.99679
0.99728
0.99778
0.99767
0.99856
0.99839
0.999
0.99846
0.9981
0.9983
0.99878
0.99888
0.99913
0.99906
0.99835
0.99843
0.99916
0.99817
0.99912
0.99915
0.99887
0.99879
0.99787
0.99823
0.99746
0.9971
0.99737
0.99739
0.99793
0.99756
0.99755
0.99717
0.99769
0.99705
0.99764
0.99684
0.99702
0.99748
0.99691
0.99728
0.99649
0.99741
0.9975
0.99714
0.99796
0.99758
0.99725
0.99652
0.99672
0.99664
0.997
0.9975
0.9984
0.9986
0.99846
0.99828
0.99822
0.9984
0.99871
0.99857
0.99908
0.99847
0.9988
0.99912
0.99903
0.99881
0.99901
0.99812
0.99837
0.99833
0.99788
0.99847
0.99807
0.99861
0.99893
0.9991
0.99974
0.99968
0.99965
0.99886
0.99927
0.9988
0.9989
0.99841
0.9987
0.99866
0.99809
0.99797
0.99801
0.99742
0.99741
0.99735
0.99695
0.99747
0.99786
0.99903
0.9987
0.99817
0.99849
0.99868
0.99919
0.99888
0.99804
0.99889
0.99854
0.99879
0.99801
0.99803
0.99787
0.99746
0.99727
0.99799
0.99743
0.99804
0.99782
0.99764
0.99769
0.99792
0.99758
0.99747
0.99764
0.99754
0.99787
0.99778
0.99724
0.99742
0.99708
0.99738
0.99801
0.99682
0.99668
0.99689
0.99729
0.99688
0.99735
0.99796
0.99739
0.99852
0.99763
0.99705
0.99707
0.99701
0.99637
0.99727
0.9974
0.99772
0.99775
0.99837
0.99837
0.9982
0.99802
0.99802
0.998
0.99835
0.99844
0.99896
0.99879
0.99864
0.99823
0.99757
0.99774
0.99772
0.99795
0.99779
0.99757
0.99721
0.99752
0.9972
0.99722
0.99763
0.99705
0.99762
0.99736
0.99791
0.99867
0.99863
0.99942
0.99936
0.99932
0.9995
0.99952
0.99926
0.99934
0.99924
0.99916
1.00009
0.99929
0.99969
0.99933
0.99923
0.99917
0.99913
0.9988
0.99936
0.99948
0.99966
1.00031
1.00015
1.00006
1.00047
1.00046
0.99989
1.00022
0.99973
0.99918
0.99898
0.99934
0.99869
0.99881
0.99859
0.9985
0.99774
0.99767
0.99781
0.99717
0.99706
0.9973
0.99708
0.99797
0.9987
0.99856
0.99855
0.9987
0.99809
0.99756
0.99761
0.99749
0.99836
0.99901
0.99908
0.99966
0.9994
0.99942
0.9992
0.99956
0.99989
0.99912
0.99953
0.99902
0.99868
0.9985
0.99864
0.99801
0.99796
0.99805
0.99886
0.99849
0.99856
0.99857
0.99841
0.99823
0.99807
0.99781
0.99763
0.99635
0.99666
0.99692
0.99647
0.99606
0.99617
0.99634
0.99568
0.99571
0.99598
0.99604
0.99581
0.9961
0.99599
0.99581
0.99602
0.99623
0.99586
0.99572
0.99658
0.99618
0.99659
0.99694
0.99705
0.99668
0.99722
0.99709
0.99726
0.99798
0.99719
0.9971
0.99701
0.99694
0.9967
0.99713
0.99667
0.9971
0.99718
0.99699
0.99749
0.99757
0.99761
0.99752
0.9972
0.9969
0.99669
0.99707
0.99669
0.99698
0.99748
0.99699
0.99715
0.9967
0.99722
0.99707
0.99741
0.99708
0.99728
0.99786
0.99741
0.99714
0.99766
0.99793
0.99721
0.99655
0.99718
0.99694
0.99709
0.99692
0.99708
0.99725
0.99763
0.99822
0.99786
0.99792
0.99852
0.9986
0.99822
0.99804
0.99799
0.99745
0.99674
0.99692
0.99777
0.99722
0.99676
0.99716
0.99752
0.99787
0.99776
0.99703
0.99727
0.99767
0.99744
0.99714
0.99657
0.99667
0.99675
0.99697
0.99647
0.99677
0.99673
0.9973
0.99702
0.99692
0.9974
0.99757
0.9978
0.99874
0.99853
0.99846
0.99859
0.99881
0.99883
0.99755
0.99812
0.99807
0.99823
0.99856
0.99844
0.99814
0.99827
0.99809
0.9986
0.99891
0.9991
0.99897
0.99976
0.99953
1.00016
1.00053
1.00003
1.00045
1.00079
1.00046
1.00016
0.99956
0.99947
0.99921
0.99896
0.99833
0.99792
0.99759
0.99747
0.99771
0.99789
0.99788
0.99819
0.99842
0.99855
0.99889
0.9989
0.99907
0.99898
0.99957
0.99957
1.00016
1.0004
0.99992
1.00019
0.99912
1.00011
0.99992
0.99948
0.99939
0.99894
0.99902
0.99843
0.9985
0.99847
0.99857
0.99833
0.99847
0.99862
0.9986
0.99879
0.99923
0.99849
0.9983
0.99875
0.9989
0.99919
0.99852
0.99767
0.99856
0.99855
0.99835
0.99878
0.9988
0.99935
0.99954
0.99922
0.99973
0.99929
0.9995
0.99917
0.99911
0.9991
0.99912
0.9988
0.99858
0.99901
0.99888
0.99878
0.99867
0.99873
0.99851
0.99839
0.99865
0.99853
0.99892
0.99842
0.99864
0.99845
0.99774
0.9978
0.99798
0.99857
0.99881
0.9986
0.99852
0.99854
0.99831
0.99881
0.99883
0.99936
0.99962
0.99946
0.99888
0.99913
0.99882
0.9996
0.99901
0.99866
0.9983
0.99848
0.99822
0.99829
0.99779
0.99854
0.99915
0.99923
0.99932
0.99957
0.99892
0.99948
0.99905
0.99955
1.00031
1.00068
1.00073
1.0014
1.00091
1.00084
1.00104
1.00083
1.00071
1.00066
1.00013
1.00001
0.99953
0.99905
0.99949
0.99972
0.99976
0.99981
0.99999
0.99999
0.9995
0.99933
0.99899
0.999
0.9998
1.00029
1.00002
1.00002
0.99968
0.99956
0.99929
0.99934
0.99927
1.00001
1.00031
1.0003
1.00071
1.00025
0.99954
0.99963
0.9994
0.99994
1.00031
1.00018
0.99999
1.00047
1.00017
1.00011
0.99954
0.99933
0.99964
0.99933
0.99925
0.99942
0.99881
0.99926
0.99997
1.00023
0.99999
1.0004
0.99918
0.99946
1.00009
1.00025
1.00073
1.00033
1.00063
1.00109
1.00104
1.00144
1.00099
1.00118
0.99969
0.99942
0.99907
0.99838
0.99797
0.99742
0.99728
0.99704
0.99717
0.99774
0.9981
0.99815
0.99838
0.99826
0.99755
0.99704
0.99668
0.99664
0.99595
0.99536
0.99545
0.99466
0.99494
0.995
0.99496
0.99515
0.99494
0.99462
0.99452
0.99451
0.99404
0.9936
0.993
0.99258
0.99306
0.99388
0.99315
0.99389
0.99434
0.99443
0.9941
0.9946
0.99387
0.99358
0.99392
0.99351
0.9938
0.99421
0.99433
0.9946
0.99432
0.99438
0.99518
0.99459
0.99442
0.99461
0.99397
0.99532
0.99486
0.99468
0.99463
0.99426
0.99471
0.99504
0.99496
0.99494
0.99455
0.99478
0.99549
0.99496
0.99554
0.99495
0.99501
0.99516
0.99509
0.99493
0.99447
0.99479
0.99504
0.99542
0.99529
0.99489
0.99429
0.99403
0.99462
0.9952
0.9951
0.99471
0.99596
0.99627
0.99692
0.99743
0.99688
0.99791
0.99791
0.99786
0.99773
0.99784
0.99779
0.99803
0.99784
0.9978
0.99766
0.99766
0.99803
0.99831
0.99913
0.99877
0.99889
0.99948
0.99888
0.99928
0.99905
0.99899
0.99905
0.99979
1.00007
0.99975
0.99949
0.99948
0.99938
0.99914
0.99882
0.99869
0.99868
0.99914
0.99965
0.99995
1.00042
0.99983
0.99973
0.99897
0.99917
0.99922
0.99917
0.99885
0.99896
0.99865
0.99866
0.99864
0.99925
0.99928
0.99921
0.99933
0.99898
0.99904
0.99909
0.99913
0.99844
0.9986
0.99867
0.99838
0.99808
0.99805
0.99819
0.99811
0.99855
0.99852
0.99829
0.99841
0.99829
0.99833
0.99829
0.99842
0.99813
0.99864
0.99876
0.99868
0.99878
0.9991
0.99927
0.99915
0.99897
0.99954
0.99948
0.99985
1.00058
1.00052
1.00044
1.00072
1.00077
1.00052
1.00033
1.00036
1.00026
1
1
1
1.0004
1.00019
1.00015
1.00079
1.00037
1.00121
1.00137
1.00184
1.00246
1.00292
1.00333
1.00351
1.00314
1.00289
1.00364
1.00358
1.00347
1.00284
1.00286
1.00233
1.00132
1.00097
0.9999
0.99957
0.99865
0.99812
0.99722
0.99726
0.99659
0.99647
0.99612
0.99611
0.99627
0.99584
0.9961
0.99571
0.99551
0.99572
0.99573
0.99597
0.99636
0.99694
0.99709
0.99728
0.99717
0.99785
0.9974
0.99774
0.99805
0.99881
0.99792
0.9977
0.99688
0.99722
0.9972
0.99717
0.99713
0.99729
0.99751
0.99746
0.99715
0.99754
0.9974
0.99765
0.99752
0.99723
0.99762
0.99762
0.99806
0.9983
0.9984
0.99795
0.99792
0.99821
0.99793
0.99836
0.99816
0.99822
0.99805
0.99786
0.99738
0.99716
0.99731
0.99747
0.99728
0.99784
0.99737
0.99687
0.99704
0.99724
0.99773
0.99748
0.99769
0.99816
0.99794
0.99801
0.99821
0.999
0.99969
0.99966
0.99939
0.99976
0.99976
0.99954
1.00034
0.99986
0.99972
0.99956
0.99934
0.99958
0.99927
0.9989
0.99847
0.99859
0.99859
0.99915
0.99876
0.99884
0.9988
0.99855
0.99911
0.99965
0.99995
0.99916
0.99929
0.99947
0.99905
0.9995
0.99944
0.99978
1
0.9992
0.99963
0.99964
0.99981
0.99975
1
0.99951
0.99909
0.99905
0.99778
0.99788
0.99771
0.99715
0.99763
0.99775
0.99706
0.9968
0.99751
0.99657
0.99689
0.99686
0.9964
0.99741
0.99703
0.997
0.99693
0.99681
0.99654
0.99678
0.9965
0.99658
0.99652
0.99717
0.99664
0.99641
0.9965
0.9962
0.99643
0.99612
0.99614
0.99655
0.99618
0.99702
0.9968
0.99705
0.99705
0.997
0.99792
1.02074
1.02334
1.03669
1.02249
1.04492
1.04874